{
  "services": {
    "ip_api": {
      "endpoint": "http://ip-api.com",
      "default": {
        "lang": "es",
        "options": [
          "status",
          "message",
          "country",
          "countryCode",
          "region",
          "regionName",
          "city",
          "zip",
          "lat",
          "lon",
          "timezone",
          "query"
        ],
        "respose": {
          "default": true,
          "status": "success",
          "country": "Argentina",
          "countryCode": "AR",
          "region": "N",
          "regionName": "Misiones",
          "city": "Apostoles",
          "zip": "3350",
          "lat": -27.9154,
          "lon": -55.7642,
          "timezone": "America/Argentina/Cordoba"
        }
      }
    },
    "openweathermap": {
      "api": "http://api.openweathermap.org/data/2.5/",
      "api_key": "ce3d0747e6c94fc5201bfb3131de74ae",
      "default": {
        "cityName": "Apostoles",
        "lang": "es",
        "units": "metric",
        "zip": 3350,
        "response": {
          "coord": {
            "lon": -55.7536,
            "lat": -27.9142
          },
          "weather": [
            {
              "id": 801,
              "main": "Clouds",
              "description": "few clouds",
              "icon": "02d"
            }
          ],
          "base": "stations",
          "main": {
            "temp": 305.15,
            "feels_like": 303.74,
            "temp_min": 305.15,
            "temp_max": 305.15,
            "pressure": 1009,
            "humidity": 35
          },
          "visibility": 10000,
          "wind": {
            "speed": 4.12,
            "deg": 160
          },
          "clouds": {
            "all": 20
          },
          "dt": 1615060043,
          "sys": {
            "type": 1,
            "id": 8263,
            "country": "AR",
            "sunrise": 1615023530,
            "sunset": 1615068594
          },
          "timezone": -10800,
          "id": 3436311,
          "name": "Apóstoles",
          "cod": 200
        }
      }
    }
  }
}